[
	{
		"Title" : "Airborne Deployment (AD)",
		"Description" : "Units of Airborne Deployed Infantry use aircraft to move to areas of the battlefield where they can cause the greatest damage when deployed.\n\nMiniatures using Airborne Deployment are not placed on the table during the Deployment Phase. If the miniature is not deployed on the table, it does not add its Order to the Orders Reserve until it enters the combat zone. A figure with Airborne Deployment can also be placed in the normal way at the beginning of the battle, inside the player’s Deployment Zone, if desired.\n\nTo enter the combat zone, figures with Airborne Deployment do not use Orders from the Orders Reserve of the army. Instead, they use their own Order, which is not part of the Orders Reserve.\n\nIf the Lieutenant possesses this Special Skill, he must be deployed at the beginning of the battle in the player’s Deployment Zone or his army will be in a Loss of Lieutenant situation. In a Retreat! situation, all troops with AD who still have not been deployed cannot be placed on the game table.\n\nThere are four levels of Airborne Deployment.\n\nLevel 1- Parachutist\nLevel 2- Airborne Infiltration\nLevel 3- Combat Jump\nLevel X- Tactical Jump",
		"Group" : "Special Skills"
	},
	{
		"Title" : "Engineer",
		"Description" : "Any figure with this Special Skill has the means and technical knowledge required to carry out campaign repairs on faulty or damaged equipment. Engineer is a Short Skill that allows, with a successful Normal WIP Roll, the repair of Structure points (STR) of vehicles or figures (1 point per successful WIP Roll) which he is in base contact with. If the Engineer fails his WIP Roll, the target miniature or structure loses 1 point of STR instead of recovering it.\n\nEngineers can reactivate all weapons, equipment and armour affected by E/M and Adhesive Special Ammunition if they pass 1 single Normal WIP Roll when in base contact with the affected figure. If the Engineer fails the WIP Roll when reactivating, it is considered that the weapon or equipment is permanently shut down with no possibility of recovery. It is essential that a miniature be in base to base contact with the item he wants to repair.\n\nFigures that posses this Short Skill can also open locks, applying the same Modifiers as Hacking Security and Information (See Advanced Rules: Hacking). In order to open/close a door, base to base contact is required.\n\nEngineer also allows Mines to be deactivated (Antipersonnel and Monofilament), as well as E/Maulers and D-ChargesIn order to deactivate a Mine in a same Order, the figure has to come into its action radius and pass a WIP Roll. If successful, the mine does not explode and is defused. If the WIP roll is failed, then it explodes, affecting the Engineer as normal.",
		"Group" : "Special Skills"
	}
]
